…
[stdout output]
  ┌─────────┐
  │ Success │
  │ boolean │
  ├─────────┤
  │ 0 rows  │
  └─────────┘
  ┌────────────┬────────────────────────────────┬─────────────┬────────────────┐
  │ l_orderkey │            revenue             │ o_orderdate │ o_shippriority │
  │   int64    │         decimal(38,4)          │    date     │     int32      │
  ├────────────┼────────────────────────────────┼─────────────┼────────────────┤
  │    2456423 │ 7486402613815570124746013.4335 │ 1995-03-05  │              0 │
  │    3459808 │ 7093472890179828434921473.4754 │ 1995-03-04  │              0 │
  │     492164 │ 6979819904484812716469734.0990 │ 1995-02-19  │              0 │
  │    1188320 │ 6883094663878082529243351.9119 │ 1995-03-09  │              0 │
  │    2435712 │ 6776801495569991189719838.1027 │ 1995-02-26  │              0 │
  │    4878020 │ 6736464867300981977544616.8376 │ 1995-03-12  │              0 │
  │    5521732 │ 6567506048873186257822121.1105 │ 1995-03-13  │              0 │
  │    2628192 │ 6544902742384859102468134.5199 │ 1995-02-22  │              0 │
  │     993600 │ 6466489143742917025472506.6795 │ 1995-03-05  │              0 │
  │    2300070 │ 6412695659944322472300488.2226 │ 1995-03-13  │              0 │
  │    1166660 │ 6370791348042929905478466.7036 │ 1995-02-27  │              0 │
  │    1083941 │ 6367718188733202966904329.5353 │ 1995-02-21  │              0 │
  │     405063 │ 6330966476726711173171473.9468 │ 1995-03-03  │              0 │
  │    4212103 │ 6300444530875839496486037.2796 │ 1995-02-14  │              0 │
  │    4232067 │ 6245283621298525779558093.7648 │ 1995-02-21  │              0 │
  │     817603 │ 6224654666139058942772823.4125 │ 1995-03-11  │              0 │
  │     408035 │ 6216191768505340472713776.3849 │ 1995-03-08  │              0 │
  │    4463334 │ 6204025674086103958570915.2435 │ 1995-03-14  │              0 │
  │    1546404 │ 6169103043454217613316215.8185 │ 1995-03-11  │              0 │
  │     345664 │ 6136400231285231624888749.8566 │ 1995-03-08  │              0 │
  │        ·   │                            ·   │     ·       │              · │
  │        ·   │                            ·   │     ·       │              · │
  │        ·   │                            ·   │     ·       │              · │
  │    2907297 │                         0.0000 │ 1994-12-18  │              0 │
  │    3321796 │                         0.0000 │ 1995-01-21  │              0 │
  │    3656999 │                         0.0000 │ 1994-12-15  │              0 │
  │    2535046 │                         0.0000 │ 1995-01-27  │              0 │
  │    4088736 │                         0.0000 │ 1994-12-13  │              0 │
  │     198694 │                         0.0000 │ 1995-01-16  │              0 │
  │     681414 │                         0.0000 │ 1995-02-25  │              0 │
  │     949024 │                         0.0000 │ 1995-01-15  │              0 │
  │    4513984 │                         0.0000 │ 1995-02-11  │              0 │
  │    1012066 │                         0.0000 │ 1995-01-25  │              0 │
  │    1023046 │                         0.0000 │ 1994-12-25  │              0 │
  │    5996519 │                         0.0000 │ 1994-12-06  │              0 │
  │    1033956 │                         0.0000 │ 1994-12-23  │              0 │
  │    1796705 │                         0.0000 │ 1995-01-03  │              0 │
  │    2674948 │                         0.0000 │ 1995-02-05  │              0 │
  │    4096903 │                         0.0000 │ 1995-01-31  │              0 │
  │    4276512 │                         0.0000 │ 1994-12-31  │              0 │
  │    4810887 │                         0.0000 │ 1994-12-31  │              0 │
  │     617767 │                         0.0000 │ 1995-02-17  │              0 │
  │    3283971 │                         0.0000 │ 1994-12-27  │              0 │
  ├────────────┴────────────────────────────────┴─────────────┴────────────────┤
  │ 11620 rows (40 shown)                                            4 columns │
…
